01 1108,06 - ok
02 2291,33 - ok          
03 1617,79 - ok
04 4838,63 - ok      
05  554,36 - ok
06 2013,25 - ok
07  772,74 - ok
08 3541,88 - ok
09 3645,40 - ok   
10 5433,91 - ok
11 4433,66 - ok
12 2548,57 - ok
13 1961,07 - ok
14 5236,98 - ok
15 9375,55 - ok
16 6903,04 - ok
17 2341,72 - ok
18 2182,86 - ok
19 4449,83 - ok
20 2574,49 - ok
21 2726,12 - ok
22 16428,95 - ok
23 6190,38 - ok
24 8275,14 - ok
25  944,94 - ok